---
http_interactions:
- request:
    method: get
    uri: https://the-one-api.dev/v2/book?limit=1
    body:
      encoding: UTF-8
      string: ''
    headers:
      Accept:
      - application/json
      Content:
      - application/json
      Authorization:
      - Bearer <FAKE_KEY>
      Connection:
      - close
      Host:
      - the-one-api.dev
      User-Agent:
      - http.rb/4.4.1
  response:
    status:
      code: 200
      message: OK
    headers:
      Date:
      - Tue, 27 Sep 2022 20:54:49 GMT
      Server:
      - Apache/2.4.41 (Ubuntu)
      Content-Security-Policy:
      - 'default-src ''self'';base-uri ''self'';block-all-mixed-content;font-src ''self''
        https: data:;frame-ancestors ''self'';img-src ''self'' data:;object-src ''none'';script-src
        ''self'';script-src-attr ''none'';style-src ''self'' https: ''unsafe-inline'';upgrade-insecure-requests'
      X-Dns-Prefetch-Control:
      - 'off'
      Expect-Ct:
      - max-age=0
      X-Frame-Options:
      - SAMEORIGIN
      Strict-Transport-Security:
      - max-age=15552000; includeSubDomains
      X-Download-Options:
      - noopen
      X-Content-Type-Options:
      - nosniff
      X-Permitted-Cross-Domain-Policies:
      - none
      Referrer-Policy:
      - no-referrer
      X-Xss-Protection:
      - '0'
      Access-Control-Allow-Origin:
      - "*"
      X-Ratelimit-Limit:
      - '100'
      X-Ratelimit-Remaining:
      - '43'
      X-Ratelimit-Reset:
      - '1664312437'
      Content-Type:
      - application/json; charset=utf-8
      Content-Length:
      - '131'
      Etag:
      - W/"83-xoy1/NoV2aPt0obFDRmbEYBnYRg"
      Connection:
      - close
    body:
      encoding: UTF-8
      string: '{"docs":[{"_id":"5cf5805fb53e011a64671582","name":"The Fellowship Of
        The Ring"}],"total":3,"limit":1,"offset":0,"page":1,"pages":3}'
  recorded_at: Tue, 27 Sep 2022 20:54:49 GMT
recorded_with: VCR 6.1.0
